{
"roads_geometry": "new_UG_10.shp",
"strands_geometry": "strand_10.shp",
"ug_crossing_geometry": "ug_crossings_10.shp",
"address_geometry": "addresses_10.shp",
"parcels_geometry": "parcels_10.shp",
"hut_geometry": "fsam_hut_point_10.shp",
"split_points": "split_points_10.shp",
"leadin_snap_points": "snap_points_10.shp",
"pole_geometry": "poles_10.shp",
"drop_pole_override": "drop_pole_override_10.shp",
"split_distance": 200, 
"snapping_radius": 0.5,
"projection": "+proj=utm +zone=17 +units=m",
"address_type_col": "address_ty",
"address_id_col": "address_id"
}