category,name,description,quantity,percentage
House Holds,Total House Holds,Total House Holds,29149.0,100.0
House Holds,Served House Holds,Total number of served House Holds,28629.0,98.22
House Holds,Unserved House Holds,Total number of unserved House Holds,520.0,1.78
Served House Holds,Total Served House Holds,Total Served House Holds,27113.0,100.0
Served House Holds,House Holds served by SDU (1 House Hold),Total House Holds served by a SDU (1 House Hold),16071.0,59.27
Served House Holds,House Holds served by MDU (4 to 8 House Holds),Total House Holds served by a MDU (4 to 8 House Holds),3342.0,12.33
Served House Holds,House Holds served by MDU (9 to 120 House Holds),Total House Holds served by a MDU (9 to 120 House Holds),7549.0,27.84
Served House Holds,House Holds served by MDU (121 to 300 House Holds),Total House Holds served by a MDU (121 to 300 House Holds),151.0,0.56
Served House Holds,House Holds served by MDU (301 to 600 House Holds),Total House Holds served by a MDU (301 to 600 House Holds),0.0,0.0
Served House Holds,House Holds served by MDU (Over 600 House Holds),Total House Holds served by a MDU (Over 600 House Holds),0.0,0.0
Served House Holds / Route Mile,Total Served House Holds / Route Mile,Total Served House Holds / Route Mile,90.75,100.0
Served House Holds / Route Mile,Served House Holds / Route Mile,Number of served House Holds per route mile of path,90.75,100.0
Properties,Total Properties,Total Properties,17196.0,100.0
Properties,SDU (1 House Hold) Properties,Total properties served by a SDU (1 House Hold),16249.0,94.49
Properties,MDU (4 to 8 House Holds) Properties,Total properties served by a MDU (4 to 8 House Holds),481.0,2.8
Properties,MDU (9 to 120 House Holds) Properties,Total properties served by a MDU (9 to 120 House Holds),465.0,2.7
Properties,MDU (121 to 300 House Holds) Properties,Total properties served by a MDU (121 to 300 House Holds),1.0,0.01
Properties,MDU (301 to 600 House Holds) Properties,Total properties served by a MDU (301 to 600 House Holds),0.0,0.0
Properties,MDU (Over 600 House Holds) Properties,Total properties served by a MDU (Over 600 House Holds),0.0,0.0
Input Summary Poles,Total Input Summary Poles,Total Input Summary Poles,222.0,100.0
Input Summary Poles,Attached Poles,Number of poles utilized by the design,222.0,100.0
Input Summary Huts,Total Input Summary Huts,Total Input Summary Huts,1.0,100.0
Input Summary Huts,Hut Count,Number of huts utilized by the design,1.0,100.0
Conduit Size,Total Conduit Size,Total Conduit Size,667.02,100.0
Conduit Size,HalfInch,Length of HalfInch conduit (miles),400.55,60.05
Conduit Size,OneInch,Length of OneInch conduit (miles),0.0,0.0
Conduit Size,TwoInch,Length of TwoInch conduit (miles),266.47,39.95
Conduit,Total Conduit,Total Conduit,667.02,100.0
Conduit,New,Total new conduit required by the design (miles),667.02,100.0
Conduit,Existing,Total existing conduit required by the design (miles),0.0,0.0
Avg MST Fiber Length,Total Avg MST Fiber Length,Total Avg MST Fiber Length,0.11,100.0
Avg MST Fiber Length,Avg MST Tail,The average MST tail length (miles),0.11,100.0
Fiber Length,Total Fiber Length,Total Fiber Length,1190.84,100.0
Fiber Length,DF Aerial,Length of DF Aerial cable (miles),0.78,0.07
Fiber Length,DF AerialToUg,Length of DF AerialToUg cable (miles),0.0,0.0
Fiber Length,DF DirectBury,Length of DF DirectBury cable (miles),0.0,0.0
Fiber Length,DF UgToAerial,Length of DF UgToAerial cable (miles),0.0,0.0
Fiber Length,DF Underground,Length of DF Underground cable (miles),41.72,3.5
Fiber Length,AF Aerial,Length of AF Aerial cable (miles),0.05,0.0
Fiber Length,AF AerialToUg,Length of AF AerialToUg cable (miles),0.0,0.0
Fiber Length,AF DirectBury,Length of AF DirectBury cable (miles),0.0,0.0
Fiber Length,AF UgToAerial,Length of AF UgToAerial cable (miles),0.0,0.0
Fiber Length,AF Underground,Length of AF Underground cable (miles),89.24,7.49
Fiber Length,MST Aerial,Length of MST Aerial cable (miles),11.0,0.92
Fiber Length,MST AerialToUg,Length of MST AerialToUg cable (miles),0.0,0.0
Fiber Length,MST DirectBury,Length of MST DirectBury cable (miles),0.0,0.0
Fiber Length,MST UgToAerial,Length of MST UgToAerial cable (miles),0.0,0.0
Fiber Length,MST Underground,Length of MST Underground cable (miles),487.28,40.92
Fiber Length,Drop Aerial,Length of Drop Aerial cable (miles),8.67,0.73
Fiber Length,Drop AerialToUg,Length of Drop AerialToUg cable (miles),0.0,0.0
Fiber Length,Drop DirectBury,Length of Drop DirectBury cable (miles),0.0,0.0
Fiber Length,Drop UgToAerial,Length of Drop UgToAerial cable (miles),0.0,0.0
Fiber Length,Drop Underground,Length of Drop Underground cable (miles),552.1,46.36
Fiber Length by Category,Total Fiber Length by Category,Total Fiber Length by Category,1190.83,100.0
Fiber Length by Category,AccessFiber,Length of AccessFiber cable (miles),89.29,7.5
Fiber Length by Category,BackboneFiber,Length of BackboneFiber cable (miles),0.0,0.0
Fiber Length by Category,DistributionFiber,Length of DistributionFiber cable (miles),42.5,3.57
Fiber Length by Category,DropFiber,Length of DropFiber cable (miles),560.77,47.09
Fiber Length by Category,MST,Length of MST cable (miles),498.27,41.84
Fiber Length by Category,SharedFiber,Length of SharedFiber cable (miles),0.0,0.0
Fiber Length by Placement,Total Fiber Length by Placement,Total Fiber Length by Placement,1190.84,100.0
Fiber Length by Placement,Aerial,Length of Aerial cable (miles),20.5,1.72
Fiber Length by Placement,AerialToUg,Length of AerialToUg cable (miles),0.0,0.0
Fiber Length by Placement,DirectBury,Length of DirectBury cable (miles),0.0,0.0
Fiber Length by Placement,UgToAerial,Length of UgToAerial cable (miles),0.0,0.0
Fiber Length by Placement,Underground,Length of Underground cable (miles),1170.34,98.28
Installation Activity,Total Installation Activity,Total Installation Activity,315.49,100.0
Installation Activity,DF Aerial,Length of DF Aerial cable footprint (miles),0.31,0.1
Installation Activity,DF AerialToUg,Length of DF AerialToUg cable footprint (miles),0.0,0.0
Installation Activity,DF DirectBury,Length of DF DirectBury cable footprint (miles),0.0,0.0
Installation Activity,DF UgToAerial,Length of DF UgToAerial cable footprint (miles),0.0,0.0
Installation Activity,DF Underground,Length of DF Underground cable footprint (miles),25.86,8.2
Installation Activity,AF Aerial,Length of AF Aerial cable footprint (miles),0.05,0.02
Installation Activity,AF AerialToUg,Length of AF AerialToUg cable footprint (miles),0.0,0.0
Installation Activity,AF DirectBury,Length of AF DirectBury cable footprint (miles),0.0,0.0
Installation Activity,AF UgToAerial,Length of AF UgToAerial cable footprint (miles),0.0,0.0
Installation Activity,AF Underground,Length of AF Underground cable footprint (miles),55.72,17.66
Installation Activity,MST Aerial,Length of MST Aerial cable footprint (miles),6.91,2.19
Installation Activity,MST AerialToUg,Length of MST AerialToUg cable footprint (miles),0.0,0.0
Installation Activity,MST DirectBury,Length of MST DirectBury cable footprint (miles),0.0,0.0
Installation Activity,MST UgToAerial,Length of MST UgToAerial cable footprint (miles),0.0,0.0
Installation Activity,MST Underground,Length of MST Underground cable footprint (miles),226.64,71.84
Installation Activity by Hierarchy,Total Installation Activity by Hierarchy,Total Installation Activity by Hierarchy,315.49,100.0
Installation Activity by Hierarchy,AccessFiber,Length of AccessFiber cable footprint (miles),55.77,17.68
Installation Activity by Hierarchy,BackBoneFiber,Length of BackBoneFiber cable footprint (miles),0.0,0.0
Installation Activity by Hierarchy,DistributionFiber,Length of DistributionFiber cable footprint (miles),26.17,8.3
Installation Activity by Hierarchy,MSTFiber,Length of MSTFiber cable footprint (miles),233.55,74.03
Installation Activity by Placement,Total Installation Activity by Placement,Total Installation Activity by Placement,315.48,100.0
Installation Activity by Placement,Aerial,Length of Aerial cable footprint (miles),7.26,2.3
Installation Activity by Placement,AerialToUg,Length of AerialToUg cable footprint (miles),0.0,0.0
Installation Activity by Placement,DirectBury,Length of DirectBury cable footprint (miles),0.0,0.0
Installation Activity by Placement,UgToAerial,Length of UgToAerial cable footprint (miles),0.0,0.0
Installation Activity by Placement,Underground,Length of Underground cable footprint (miles),308.22,97.7
Equipment Name,Total Equipment Name,Total Equipment Name,3746.0,100.0
Equipment Name,FDH,Total number of FDHs,55.0,1.47
Equipment Name,MST,Total number of MSTs,2972.0,79.34
Equipment Name,Fap,Total count of Fap,583.0,15.56
Equipment Name,FapMidCableAccess,Total count of FapMidCableAccess,1.0,0.03
Equipment Name,FapReelEnd,Total count of FapReelEnd,0.0,0.0
Equipment Name,FdhSplice,Total count of FdhSplice,55.0,1.47
Equipment Name,MidCableAccess,Total count of MidCableAccess,77.0,2.06
Equipment Name,ReelEnd,Total count of ReelEnd,3.0,0.08
MST Equipment Size,Total MST Equipment Size,Total MST Equipment Size,2972.0,100.0
MST Equipment Size,MST 1:4,Total number of MSTs with 1:4 splitters,1017.0,34.22
MST Equipment Size,MST 1:8,Total number of MSTs with 1:8 splitters,1955.0,65.78
Vault Count,Total Vault Count,Total Vault Count,13111.0,100.0
Vault Count,Cabinet,Total count of Cabinet,0.0,0.0
Vault Count,Drop,Total count of Drop,5963.0,45.48
Vault Count,Fap,Total count of Fap,553.0,4.22
Vault Count,Fdh,Total count of Fdh,55.0,0.42
Vault Count,FdhSplice,Total count of FdhSplice,0.0,0.0
Vault Count,Knight,Total count of Knight,0.0,0.0
Vault Count,MidCableAccess,Total count of MidCableAccess,52.0,0.4
Vault Count,Mst,Total count of Mst,3007.0,22.93
Vault Count,Other,Total count of Other,0.0,0.0
Vault Count,Pull,Total count of Pull,3269.0,24.93
Vault Count,ReelEnd,Total count of ReelEnd,0.0,0.0
Vault Count,Storage,Total count of Storage,212.0,1.62
Vault Size,Total Vault Size,Total Vault Size,13111.0,100.0
Vault Size,DV,Total count of DV,5963.0,45.48
Vault Size,LLV,Total count of LLV,46.0,0.35
Vault Size,LV,Total count of LV,49.0,0.37
Vault Size,MV,Total count of MV,0.0,0.0
Vault Size,SV,Total count of SV,7051.0,53.78
Vault Size,XLV,Total count of XLV,2.0,0.02
Vault Size,XXLV,Total count of XXLV,0.0,0.0
Splice Case Count,Total Splice Case Count,Total Splice Case Count,719.0,100.0
Splice Case Count,Aerial,Total number of aerial splice cases,1.0,0.14
Splice Case Count,Underground,Total number of underground splice cases,718.0,99.86
Splice Type,Total Splice Type,Total Splice Type,719.0,100.0
Splice Type,Ribbon Splice,Total number of ribbon splices in the network,68.0,9.46
Splice Type,Single Fusion,Total number of single fusion splices in the network,651.0,90.54
FAP num attached MSTs,Total FAP num attached MSTs,Total FAP num attached MSTs,583.0,100.0
FAP num attached MSTs,Fap with 0 msts attached,Number of faps with 0 msts attached,0.0,0.0
FAP num attached MSTs,Fap with 1 msts attached,Number of faps with 1 msts attached,1.0,0.17
FAP num attached MSTs,Fap with 2 msts attached,Number of faps with 2 msts attached,4.0,0.69
FAP num attached MSTs,Fap with 3 msts attached,Number of faps with 3 msts attached,5.0,0.86
FAP num attached MSTs,Fap with 4 msts attached,Number of faps with 4 msts attached,14.0,2.4
FAP num attached MSTs,Fap with 5 msts attached,Number of faps with 5 msts attached,22.0,3.77
FAP num attached MSTs,Fap with 6 msts attached,Number of faps with 6 msts attached,54.0,9.26
FAP num attached MSTs,Fap with 7 msts attached,Number of faps with 7 msts attached,112.0,19.21
FAP num attached MSTs,Fap with 8 msts attached,Number of faps with 8 msts attached,371.0,63.64
